Data Dynamos - Visualising the Heavens
…
Rows: 45716 Columns: 10
── Column specification ──────────────────────────────────────────────
Delimiter: ","
chr (5): name, nametype, recclass, fall, GeoLocation
dbl (4): id, year, reclat, reclong
num (1): mass (g)

ℹ Use `spec()` to retrieve the full column specification for this data.
ℹ Specify the column types or set `show_col_types = FALSE` to quiet this message.

Data Read

meteorite

# A tibble: 45,716 × 10
   name             id nametype recclass `mass (g)` fall   year reclat
   <chr>         <dbl> <chr>    <chr>         <dbl> <chr> <dbl>  <dbl>
 1 Aachen            1 Valid    L5               21 Fell   1880   50.8
 2 Aarhus            2 Valid    H6              720 Fell   1951   56.2
 3 Abee              6 Valid    EH4          107000 Fell   1952   54.2
 4 Acapulco         10 Valid    Acapulc…       1914 Fell   1976   16.9
 5 Achiras         370 Valid    L6              780 Fell   1902  -33.2
 6 Adhi Kot        379 Valid    EH4            4239 Fell   1919   32.1
 7 Adzhi-Bogdo …   390 Valid    LL3-6           910 Fell   1949   44.8
 8 Agen            392 Valid    H5            30000 Fell   1814   44.2
 9 Aguada          398 Valid    L6             1620 Fell   1930  -31.6
10 Aguila Blanca   417 Valid    L              1440 Fell   1920  -30.9
# ℹ 45,706 more rows
# ℹ 2 more variables: reclong <dbl>, GeoLocation <chr>
…
